EDA for OZNAL project
…
colnames(df)[colnames(df) == "Car/Suv"] <- "Car_Suv"

PREDICTORS <- c('Brand_encoded', 'age', 'Model_encoded', 
                'Car_Suv_encoded', 'UsedOrNew_encoded', 
                'Transmission_encoded', 'Kilometres_num',
                'Cylinders', 'Engine_L', 'DriveType_encoded',
                'FuelType_encoded', 'FuelConsumption_num',
                'ColourExtInt_encoded', 'Location_encoded',
                'BodyType_encoded', 'Doors_num', 'Seats_num')
TARGET <- 'Price'
df

## # A tibble: 16,734 × 19
##    Brand        Year Model Car_Suv Title UsedOrNew Transmission Engine DriveType
##    <chr>       <dbl> <chr> <chr>   <chr> <chr>     <chr>        <chr>  <chr>    
##  1 Ssangyong    2022 Rext… Suther… 2022… DEMO      Automatic    4 cyl… AWD      
##  2 MG           2022 MG3   Hatchb… 2022… USED      Automatic    4 cyl… Front    
##  3 BMW          2022 430I  Coupe   2022… USED      Automatic    4 cyl… Rear     
##  4 Mercedes-B…  2011 E500  Coupe   2011… USED      Automatic    8 cyl… Rear     
##  5 Renault      2022 Arka… SUV     2022… USED      Automatic    4 cyl… Front    
##  6 Toyota       2004 Esti… ON FOU… 2004… USED      Automatic    -      Other    
##  7 Land         2017 Rover SUV     2017… USED      Automatic    4 cyl… AWD      
##  8 Nissan       2000 Puls… Hatchb… 2000… USED      Automatic    4 cyl… Front    
##  9 Toyota       2013 86    Coupe   2013… USED      Automatic    4 cyl… Rear     
## 10 Honda        2014 Jazz  Hatchb… 2014… USED      Automatic    4 cyl… Front    
## # ℹ 16,724 more rows
## # ℹ 10 more variables: FuelType <chr>, FuelConsumption <chr>, Kilometres <chr>,
## #   ColourExtInt <chr>, Location <chr>, CylindersinEngine <chr>,
## #   BodyType <chr>, Doors <chr>, Seats <chr>, Price <dbl>
…
  return(df)
}

Target Encoding

These are columns that need to be encoded. We simply apply the
function defined above on each of them.

COLS_TO_ENCODE <- c('Brand', 'Model', 'Car_Suv', 'UsedOrNew', 'Transmission', 'DriveType', 'FuelType', 'ColourExtInt', 'Location', 'BodyType')

df <- reduce(COLS_TO_ENCODE, ~ target.encode(df = .x, target = TARGET, col = .y), .init = df)

df

## # A tibble: 14,551 × 29
##    Brand        Year Model Car_Suv Title UsedOrNew Transmission Engine DriveType
##    <chr>       <dbl> <chr> <chr>   <chr> <chr>     <chr>        <chr>  <chr>    
##  1 Ssangyong    2022 Rext… Suther… 2022… DEMO      Automatic    4 cyl… AWD      
##  2 MG           2022 MG3   Hatchb… 2022… USED      Automatic    4 cyl… Front    
##  3 BMW          2022 430I  Coupe   2022… USED      Automatic    4 cyl… Rear     
##  4 Mercedes-B…  2011 E500  Coupe   2011… USED      Automatic    8 cyl… Rear     
##  5 Renault      2022 Arka… SUV     2022… USED      Automatic    4 cyl… Front    
##  6 Land         2017 Rover SUV     2017… USED      Automatic    4 cyl… AWD      
##  7 Nissan       2000 Puls… Hatchb… 2000… USED      Automatic    4 cyl… Front    
##  8 Toyota       2013 86    Coupe   2013… USED      Automatic    4 cyl… Rear     
##  9 Honda        2014 Jazz  Hatchb… 2014… USED      Automatic    4 cyl… Front    
## 10 Toyota       2018 HiAce Commer… 2018… USED      Automatic    4 cyl… Rear     
## # ℹ 14,541 more rows
## # ℹ 20 more variables: FuelType <chr>, FuelConsumption <chr>, Kilometres <chr>,
## #   ColourExtInt <chr>, Location <chr>, CylindersinEngine <chr>,
## #   BodyType <chr>, Doors <chr>, Seats <chr>, Price <dbl>, Brand_encoded <dbl>,
## #   Model_encoded <dbl>, Car_Suv_encoded <dbl>, UsedOrNew_encoded <dbl>,
## #   Transmission_encoded <dbl>, DriveType_encoded <dbl>,
## #   FuelType_encoded <dbl>, ColourExtInt_encoded <dbl>, …
…
Engine -> Cylinders, Engine

# extract actually replaces the original column with new ones based on regex match
df <- df %>%
  extract(
    Engine,                 # The source column containing engine info
    into = c("Cylinders", "Engine_L"),  # New columns to create
    regex = "(\\d+) cyl, (\\d+\\.?\\d*) L",  # Pattern to match
    convert = TRUE          # Automatically convert to appropriate data types
  )

df

## # A tibble: 14,551 × 31
##    Brand      Year Model Car_Suv Title UsedOrNew Transmission Cylinders Engine_L
##    <chr>     <dbl> <chr> <chr>   <chr> <chr>     <chr>            <int>    <dbl>
##  1 Ssangyong  2022 Rext… Suther… 2022… DEMO      Automatic            4      2.2
##  2 MG         2022 MG3   Hatchb… 2022… USED      Automatic            4      1.5
##  3 BMW        2022 430I  Coupe   2022… USED      Automatic            4      2  
##  4 Mercedes…  2011 E500  Coupe   2011… USED      Automatic            8      5.5
##  5 Renault    2022 Arka… SUV     2022… USED      Automatic            4      1.3
##  6 Land       2017 Rover SUV     2017… USED      Automatic            4      2  
##  7 Nissan     2000 Puls… Hatchb… 2000… USED      Automatic            4      1.6
##  8 Toyota     2013 86    Coupe   2013… USED      Automatic            4      2  
##  9 Honda      2014 Jazz  Hatchb… 2014… USED      Automatic            4      1.3
## 10 Toyota     2018 HiAce Commer… 2018… USED      Automatic            4      2.7
## # ℹ 14,541 more rows
## # ℹ 22 more variables: DriveType <chr>, FuelType <chr>, FuelConsumption <chr>,
## #   Kilometres <chr>, ColourExtInt <chr>, Location <chr>,
## #   CylindersinEngine <chr>, BodyType <chr>, Doors <chr>, Seats <chr>,
## #   Price <dbl>, Brand_encoded <dbl>, Model_encoded <dbl>,
## #   Car_Suv_encoded <dbl>, UsedOrNew_encoded <dbl>, Transmission_encoded <dbl>,
## #   DriveType_encoded <dbl>, FuelType_encoded <dbl>, …

FuelComsumption

df <- df %>%
  mutate(
    FuelConsumption_num = as.numeric(str_extract(FuelConsumption, "\\d+\\.?\\d*"))
  )

df

## # A tibble: 14,551 × 32
##    Brand      Year Model Car_Suv Title UsedOrNew Transmission Cylinders Engine_L
##    <chr>     <dbl> <chr> <chr>   <chr> <chr>     <chr>            <int>    <dbl>
##  1 Ssangyong  2022 Rext… Suther… 2022… DEMO      Automatic            4      2.2
##  2 MG         2022 MG3   Hatchb… 2022… USED      Automatic            4      1.5
##  3 BMW        2022 430I  Coupe   2022… USED      Automatic            4      2  
##  4 Mercedes…  2011 E500  Coupe   2011… USED      Automatic            8      5.5
##  5 Renault    2022 Arka… SUV     2022… USED      Automatic            4      1.3
##  6 Land       2017 Rover SUV     2017… USED      Automatic            4      2  
##  7 Nissan     2000 Puls… Hatchb… 2000… USED      Automatic            4      1.6
##  8 Toyota     2013 86    Coupe   2013… USED      Automatic            4      2  
##  9 Honda      2014 Jazz  Hatchb… 2014… USED      Automatic            4      1.3
## 10 Toyota     2018 HiAce Commer… 2018… USED      Automatic            4      2.7
## # ℹ 14,541 more rows
## # ℹ 23 more variables: DriveType <chr>, FuelType <chr>, FuelConsumption <chr>,
## #   Kilometres <chr>, ColourExtInt <chr>, Location <chr>,
## #   CylindersinEngine <chr>, BodyType <chr>, Doors <chr>, Seats <chr>,
## #   Price <dbl>, Brand_encoded <dbl>, Model_encoded <dbl>,
## #   Car_Suv_encoded <dbl>, UsedOrNew_encoded <dbl>, Transmission_encoded <dbl>,
## #   DriveType_encoded <dbl>, FuelType_encoded <dbl>, …

Doors and Seats

df$Doors_num <- as.numeric(gsub("[^0-9]", "", df$Doors))
df$Seats_num <- as.numeric(gsub("[^0-9]", "", df$Seats))

After preprocessing is over, we can visualize the final dataset.

df

## # A tibble: 14,551 × 34
##    Brand      Year Model Car_Suv Title UsedOrNew Transmission Cylinders Engine_L
##    <chr>     <dbl> <chr> <chr>   <chr> <chr>     <chr>            <int>    <dbl>
##  1 Ssangyong  2022 Rext… Suther… 2022… DEMO      Automatic            4      2.2
##  2 MG         2022 MG3   Hatchb… 2022… USED      Automatic            4      1.5
##  3 BMW        2022 430I  Coupe   2022… USED      Automatic            4      2  
##  4 Mercedes…  2011 E500  Coupe   2011… USED      Automatic            8      5.5
##  5 Renault    2022 Arka… SUV     2022… USED      Automatic            4      1.3
##  6 Land       2017 Rover SUV     2017… USED      Automatic            4      2  
##  7 Nissan     2000 Puls… Hatchb… 2000… USED      Automatic            4      1.6
##  8 Toyota     2013 86    Coupe   2013… USED      Automatic            4      2  
##  9 Honda      2014 Jazz  Hatchb… 2014… USED      Automatic            4      1.3
## 10 Toyota     2018 HiAce Commer… 2018… USED      Automatic            4      2.7
## # ℹ 14,541 more rows
## # ℹ 25 more variables: DriveType <chr>, FuelType <chr>, FuelConsumption <chr>,
## #   Kilometres <chr>, ColourExtInt <chr>, Location <chr>,
## #   CylindersinEngine <chr>, BodyType <chr>, Doors <chr>, Seats <chr>,
## #   Price <dbl>, Brand_encoded <dbl>, Model_encoded <dbl>,
## #   Car_Suv_encoded <dbl>, UsedOrNew_encoded <dbl>, Transmission_encoded <dbl>,
## #   DriveType_encoded <dbl>, FuelType_encoded <dbl>, …
…
